{
  "name": "sb-admin-bs4-angular-8",
  "version": "8.0.0",
  "license": "Apache",
  "scripts": {
    "ng": "ng",
    "start": "ng build --aot && node server.js",
    "build": "ng build --prod",
    "gitbuild": "ng build --prod --base-href /start-angular/SB-Admin-BS4-Angular-7/master/dist/",
    "test": "ng test",
    "test-ci": "TEST_CI=true ng test",
    "lint": "ng lint",
    "e2e": "ng e2e"
  },
  "private": true,
  "dependencies": {
    "@angular/animations": "8.0.0",
    "@angular/common": "8.0.0",
    "@angular/compiler": "8.0.0",
    "@angular/core": "8.0.0",
    "@angular/forms": "8.0.0",
    "@angular/platform-browser": "8.0.0",
    "@angular/platform-browser-dynamic": "8.0.0",
    "@angular/router": "8.0.0",
    "@ng-bootstrap/ng-bootstrap": "4.2.1",
    "@ngx-translate/core": "11.0.1",
    "@ngx-translate/http-loader": "4.0.0",
    "chart.js": "2.7.3",
    "core-js": "2.5.7",
    "font-awesome": "4.7.0",
    "ng2-charts": "2.3.0",
    "rxjs": "6.5.2",
    "tslib": "^1.9.0",
    "yarn": "1.16.0",
    "zone.js": "~0.9.1"
  },
  "devDependencies": {
    "@angular-devkit/build-angular": "~0.800.0",
    "@angular/cli": "8.0.2",
    "@angular/compiler-cli": "8.0.0",
    "@angular/language-service": "8.0.0",
    "@types/jasmine": "2.8.9",
    "@types/jasminewd2": "2.0.5",
    "@types/node": "10.12.2",
    "codelyzer": "^5.0.1",
    "jasmine-core": "3.3.0",
    "jasmine-spec-reporter": "4.2.1",
    "karma": "^4.1.0",
    "karma-chrome-launcher": "2.2.0",
    "karma-cli": "1.0.1",
    "karma-coverage-istanbul-reporter": "2.0.4",
    "karma-jasmine": "1.1.2",
    "karma-jasmine-html-reporter": "1.4.0",
    "protractor": "5.4.1",
    "ts-node": "7.0.1",
    "tslint": "5.11.0",
    "typescript": "3.4.5"
  }
}
